…
``` r
rc_ethnicity <- read_csv('rc_ethnicity.csv') %>%
  mutate(cat_final = cat_opensafely_2)
```

View the data where the Read codes are in the OpenSafely list:

``` r
rc_ethnicity %>%
  filter(!is.na(cat_final)) %>%
  select(read_code, read_term_1, read_term_2, cat_final)
```

    ## # A tibble: 266 x 4
    ##    read_code read_term_1                read_term_2                    cat_final
    ##    <chr>     <chr>                      <chr>                          <chr>    
    ##  1 9S1..     White                      White - ethnic group           White    
    ##  2 9S2..     Black Caribbean            <NA>                           Black    
    ##  3 9S3..     Black African              <NA>                           Black    
    ##  4 9S4..     Black other non-mixed ori… Black, other, non-mixed origin Black    
    ##  5 9S41.     Black British              <NA>                           Black    
    ##  6 9S42.     Black Caribbean            Black Caribbean &/or W.I. &/o… Black    
    ##  7 9S43.     Black Arab                 Black N African &/or Arab &/o… Black    
    ##  8 9S44.     Black - other African cou… <NA>                           Black    
    ##  9 9S45.     Black E Afric Asia/Indo-C… Black E Afric Asia &/or Indo-… Black    
    ## 10 9S46.     Black Indian sub-continent <NA>                           Black    
    ## # … with 256 more rows

View the data where the Read codes are *not* in the OpenSafely list:

``` r
rc_ethnicity %>%
  filter(is.na(cat_final)) %>%
  select(read_code, read_term_1, read_term_2, cat_final)
```

    ## # A tibble: 178 x 4
    ##    read_code read_term_1                                   read_term_2 cat_final
    ##    <chr>     <chr>                                         <chr>       <chr>    
    ##  1 916E.     Patient ethnicity unknown                     <NA>        <NA>     
    ##  2 9i...     Ethnic category - 2001 census                 <NA>        <NA>     
    ##  3 9i0..     British or mixed British - ethnic category 2… <NA>        <NA>     
    ##  4 9i00.     White British - ethnic category 2001 census   <NA>        <NA>     
    ##  5 9i1..     Irish - ethnic category 2001 census           <NA>        <NA>     
    ##  6 9i10.     White Irish - ethnic category 2001 census     <NA>        <NA>     
    ##  7 9i2..     Other White background - ethnic category 200… <NA>        <NA>     
    ##  8 9i20.     English - ethnic category 2001 census         <NA>        <NA>     
    ##  9 9i21.     Scottish - ethnic category 2001 census        <NA>        <NA>     
    ## 10 9i22.     Welsh - ethnic category 2001 census           <NA>        <NA>     
    ## # … with 168 more rows
…
